{
    "type": "object",
    "properties": {
        "language": {
            "type": "string",
            "description": "Source code language to search.",
            "enum": ["python", "cxx"]
        },
        "module": {
            "type": "string",
            "description": "Name of the module containing the function."
        },
        "function": {
            "type": "string",
            "description": "Name of the function."
        },
        "k": {
            "type": "integer",
            "description": "Maximum number of results to generate.",
            "default": 3,
            "minimum": 1,
            "maximum": 20
        }
    },
    "required": ["language", "module", "function"],
    "additionalProperties": false
}
